﻿BELGIUM DRUG FREE POWERLIFTING FEDERATION
BK. DEADLIFT UNEQUIPPED 2016
                                                         W.Class                                                                  1é      2é      3é       4        points
Open
1                                           1            - 50,5 KG Van Casteren           Hanne    F       18 T3   48,0           90      100     105               108,53
1                                           1            - 70 KG Langaskens               Mia          F   54 M3   65,5           90      95      100               79,90
1                                           1            60 KG El Mhassani                Walid        M   18 T3   57,8           140     150     160      166,5    135,25
1                                                        67,5 KG Van den Abbeele    Tim                M   28 SR   65,8           185     195,5   200      -202,5   148,58
2                                           1            67,5 KG Dierckx                  Liam         M   21 JR   66,5           172,5   180     185      191      136,10
1                                                        75 KG Vanhaverbeke               Kenny    M       32 SR   73,1           165     180     195               132,25
2                                           1            75 KG Vandenbosch                Kevin        M   21 JR   70,8           185     -190                      128,83
3                                           2            75 KG Desmet                     Lars         M   22 JR   73,1           130     140     -150              94,95
1                                           1            90 KG Annaert                    Gregg        M   21 JR   87,7           220                               130,83
2                                           2            90 KG Declercq                   Bram         M   21 JR   85,8           175     190     205               123,64
1                                           1            110 KG Wouters                   Sammuel  M               28 SR  101,2   180     190     -195              104,75
2                                           1            110 KG Gheldof                   Marcel       M           51 M3  107,6   195     205     -215,5            110,62
Nat Record
European Record                             Drugtested
5 Nov Antwerpen
